<?xml version="1.0" encoding="UTF-8"?>
<!DOCTYPE svg PUBLIC "-//W3C//DTD SVG 1.1//EN" "http://www.w3.org/Graphics/SVG/1.1/DTD/svg11.dtd">
<!-- Creator: CorelDRAW 2020 (64-Bit Evaluation Version) -->
<svg xmlns="http://www.w3.org/2000/svg" xml:space="preserve" width="100mm" height="100mm" version="1.1" style="shape-rendering:geometricPrecision; text-rendering:geometricPrecision; image-rendering:optimizeQuality; fill-rule:evenodd; clip-rule:evenodd"
viewBox="0 0 10000 10000"
 xmlns:xlink="http://www.w3.org/1999/xlink"
 xmlns:xodm="http://www.corel.com/coreldraw/odm/2003">
 <defs>
  <style type="text/css">
   <![CDATA[
    .fil1 {fill:#010101}
    .fil3 {fill:#767676}
    .fil4 {fill:#8A8A8A}
    .fil2 {fill:#FC837C}
    .fil0 {fill:#FD0002}
    .fil5 {fill:#FE948C}
   ]]>
  </style>
 </defs>
 <g id="Layer_x0020_1">
  <metadata id="CorelCorpID_0Corel-Layer"/>
  <path class="fil0" d="M6793.89 2073.64c-16.53,28.24 25.74,13.01 -34.05,25.75l-196.52 211.73c-10.78,16.44 -11.62,19.61 -23.37,30.34 -15.7,14.36 -4.39,3.45 -26.04,15.64l-218.71 232.96 -30.44 30.98 -3.21 4.6c-9.44,13.3 -17.41,26.62 -29.37,37 -19.37,16.81 -4.62,7.28 -30.95,15.2 -11.01,46.67 -0.68,23.45 -37.21,42.24 -9.54,17.13 -7.5,15.71 -24,25.64l-11.1 25.81 -17.87 4.63c-12.96,35.39 -51.45,83.03 -73.64,132.66 -84.26,188.46 -82.83,370.37 -6.58,545.16 91.91,210.68 188.49,388.88 274.59,593.64l19.65 43.31c77.74,189.94 255.4,545.01 355.63,765.79l364.53 770.5c32.27,19.65 12.95,-7.56 32.89,38.72l53.34 69.47 23.58 5.87 9.78 23.97 19.49 9.52 36.6 30.8c237.18,187.07 573.41,121.86 909.14,107.39 115.61,-4.98 414.87,0.97 493.93,-42.69 152.38,-84.18 26.14,-280.25 -18.33,-377.14 -53.91,-117.45 -108.33,-230.29 -170.11,-365.37 -70.67,-154.53 -110.25,-251.51 -316.94,-159.29 -119.39,53.3 -267.36,149.91 -423.95,97 -137.32,-46.4 -201.15,-156.62 -248.93,-290.09 -14.92,-13.95 -6.06,-1.35 -19.53,-23.81 -6.92,-11.56 -0.5,2.93 -5.72,-22.3 -24.91,-72.74 -72.79,-157.7 -108.24,-235.72l-336.18 -724.93c-66.02,-145.99 -206.01,-343.29 -106.36,-527.02 94.83,-174.85 278.91,-172.74 428.6,-274.65l29.58 -32.11c72.12,-125.71 -52.49,-302.02 -103.58,-416.27 -45.27,-101.21 -150.28,-291.03 -177.49,-389.53l-20.4 -29.88c-18.81,-4.97 -15.69,18.65 -15.69,-7.16 -19.72,0 -12.34,3.87 -12.91,-20.41 -87.28,-35.04 -115.4,-51.22 -203.91,2.05z"/>
  <path class="fil1" d="M2244.91 3869.5l34.96 26.21c139.12,128.62 216.8,233.62 262.93,462.2 75.87,375.98 -3.49,858.94 -359.88,1045.83 -134.87,70.73 -412.97,147.19 -605.73,105.39l1.73 -1780.89c99.23,-18.35 291.88,5.39 381.72,25.67 141.31,31.89 172.3,66.75 284.27,115.59zm294.38 1887.26l39.33 -21.68c240.41,-173.17 471.37,-488.61 519.07,-883.21 26.89,-222.58 19.79,-433.52 -36.09,-638.21 -38.27,-140.22 -150.92,-403.96 -233.91,-469.24l-23.36 -35.63c-174.31,-183.17 -344.92,-335.77 -680.26,-412.85 -197.32,-45.35 -847.93,-50.69 -1076,-30.04l-0.69 2709.32c251.94,9.22 616.89,15.76 858.96,-1.28 175.47,-12.35 530.26,-106.6 632.95,-217.18z"/>
  <path class="fil1" d="M5276.18 4016.39l16.69 -28.62 14.2 27.63c4.43,63.8 127.26,386.11 157.02,473.23 36.08,105.58 148.99,388.21 156.86,482.36l-632.29 -2.78 287.52 -951.82zm-1216.01 1957.74l552.32 1.86 223.73 -572 939.26 -2.41c56.09,106.89 161.81,484.08 214.62,573.68l552.47 0.89c1.96,-50.61 -971.92,-2654.99 -1017,-2781.04l-412.23 -1.17 -531.1 1392.63c-88.68,231.37 -177.13,461.02 -263.5,694.09 -37.6,101.47 -250.35,637.04 -258.57,693.47z"/>
  <path class="fil1" d="M3372.03 5972.44l524.99 3.99 5.02 -2713.08c-97.46,-0.64 -463.69,-11.97 -529.67,7.71l-0.34 2701.38z"/>
  <path class="fil1" d="M6760.19 7342.58l31.57 -28.91 38.82 -38.45 28.74 -30.58 103.7 -111.29c11.69,144.89 -23.65,384.42 -41.55,526.19 -6.59,52.14 -33.36,220.09 -15.17,264.61 29.74,72.8 134.1,56.68 152.3,-56.51 26.39,-164.04 14.93,-343.37 52.2,-504.7 31.21,-135.12 116.42,-247.74 190.81,-362.95l23.3 -37.31c33.19,-33.4 271.19,-311.05 350.99,-154.2 72.56,142.6 -92.1,352.16 -159.88,414.91 -15.37,17.37 -1.65,12.98 -38.16,23.91 -63.79,48.82 -181.99,45.33 -250.97,111.32 -30.8,151.83 158.27,108.94 236.77,63.39 179.43,-104.14 406.96,-203.89 631.4,-334.23 41.77,-24.23 73.56,-54.1 118.22,-71.92 -10.73,124.28 -51.48,207.93 -40.35,351.81 35.57,460 633.45,54.28 579.17,-120.69 -125.29,-17.99 -197.7,224.49 -377.44,189.25 -128.65,-58.37 9.09,-522.03 39.69,-599.33 175.29,-37.91 491.22,-19.18 521.92,-84.62 50.96,-108.56 -135.17,-84.71 -197.61,-80 -78.24,5.93 -189.09,22.63 -268.81,17.13 10.11,-59 50.66,-147.51 70.87,-204.7 52.87,-149.68 -12.78,-177.95 -77.64,-148.84 -51.28,23.02 -116.63,297.94 -169.96,376.27 -64.13,7.3 -198.52,-18.26 -239.4,19.42 -43.22,45.07 -1.01,97.77 39.73,111.24 49.81,16.44 79.29,-0.45 118.56,3.99 22.15,2.5 11.42,0.11 24.7,7.84 -42.82,61.23 -464.73,300.67 -551.31,326.59 48.89,-95 157.18,-160.86 147.55,-338.75 -7.67,-141.65 -101.81,-246.91 -253.14,-209.97 -266.51,65.08 -428.11,431.42 -479.3,469.83 -3.75,-120.79 121.72,-393.88 -65.32,-363.41 -91.88,83.25 -30.51,173.7 -72.74,254.24 -10.62,20.28 -120.9,126.62 -160.51,164.12 -83.4,78.94 -270.37,247.11 -432.4,221.22 -157.24,-184.18 -8.91,-457.74 -38.41,-659.26 -160.11,-38.77 -170.98,161.64 -182.58,275.71 -45.44,447.38 161.21,774.41 611.64,347.63z"/>
  <path class="fil1" d="M3355.92 7555.82c-20.31,46.69 -3.63,25.51 -40.58,43.32 -10.49,64.5 -22.66,100.29 73.84,100.55 171.99,0.47 646.39,-477.03 709.31,-510.41 14.17,-34.9 4.72,-20.08 28.38,-33.38 24.52,-29.53 12.91,-19.36 47.31,-37.22 1.94,163.92 15.55,263.1 138.87,327.57 111.95,58.54 283.9,8.21 381.9,-32.8 171.96,-71.93 272.69,-166.22 406.41,-291.22 30.39,-28.41 93.45,-103.89 115.53,-115.96 11.67,148.69 -55.16,443.76 47.88,545.08 133.92,15.73 98.78,-110.49 92.13,-207.6 -15.23,-221.99 335.13,-481.96 501.64,-474.47 53.59,2.41 106.56,10.22 126.8,-42.6 18.97,-49.51 -3.29,-94.31 -40.98,-116.03 -196.18,-113.07 -533.39,311.1 -588.43,353.27 -6.37,-249.2 69.28,-292.04 47.41,-395.79 -79.9,-45.12 -141.4,10.72 -157.01,94.85 -11.6,62.56 -68.84,146.4 -120.81,174.73 -15.19,40.95 -7.05,22.71 -27.89,35.86l-98.35 97.71c-14.15,24.69 18.92,11.85 -37.29,27.36 -41.67,82.87 -449.58,342.71 -599.32,215.01 -93.55,-79.78 -53.19,-233.13 -11.21,-348.66 29.79,-82 100.68,-200.01 175.74,-246.41 17.35,-13.28 -24.65,-16.95 41.83,-16.39l26.13 47.11c3.41,71.63 12.2,137.85 87.22,139.97 103.88,-88.29 1.17,-312.68 -95.14,-325.16 -162.47,-21.06 -302.56,293.33 -382.17,372.27 -90.51,89.75 -317.65,318.79 -433.98,328.92 -31.94,-85.91 -169.03,-261.63 -167.3,-341.25 1.53,-70.26 260.66,-193.42 118.15,-297.89 -109.44,-41.78 -200.79,107.4 -230.38,192.8 -49.12,141.78 -16.79,211.83 52.46,324.03 43.77,70.93 158.68,192.81 84,275.24 -18.64,20.56 -223.91,127.77 -272.1,137.59z"/>
  <path class="fil0" d="M1641.91 7055.72c6.17,-35.5 268.13,-486.05 338.25,-500.62 28.13,63.37 135.96,338.35 135.89,400.56 -120,36.46 -350.52,101.72 -474.14,100.06zm328.26 -833.84c-7.53,20.24 -6.8,22.2 -16.25,36.51 -10.38,15.7 -9.9,10.43 -21.13,21.02l-81.37 169.67 -19.91 44.42c-47.38,118.09 -190.86,287.19 -257.09,379.99l-23.1 37.89c-26.23,27.62 -171.13,230.33 -184.82,267.24 -12.16,25.08 6.93,1.34 -12.96,26.9 -26.05,33.49 -3.78,8.25 -30.28,26.37 -23.73,44.63 -69.06,102.3 -102.83,144.28 -96.56,120.04 -75.4,60.79 -148.85,106.12 1.06,104.54 145.2,146.4 253.11,32.58 223.95,-236.22 109.16,-266.9 322.74,-305.09 55.52,-9.93 120.77,-20.37 177.36,-32.42l341.72 -79.44c25.85,31 79.2,184.55 97.93,227.75 32.87,75.77 68.55,143.4 119.66,204.54 44.82,19.55 15.93,3.67 29.57,26.26 214.71,-5.01 24.14,-213.96 -14.17,-282.29 -46.32,-82.59 -107.16,-259.51 -139.83,-359.97 -40.18,-123.51 -84.23,-252.34 -131.75,-369.65 -30.47,-75.19 -55.21,-99.05 -52.79,-190.3 2.54,-95.55 18.18,-185.3 -104.96,-132.38z"/>
  <path class="fil1" d="M6304.06 6225.91l-24.2 34.63c-98.39,88.29 76.73,158.86 158.66,102.35 126.24,-87.08 -1.25,-293.06 -134.46,-136.98z"/>
  <path class="fil2" d="M6201.23 2677.84c26.33,-7.92 11.58,1.61 30.95,-15.2 11.96,-10.38 19.93,-23.7 29.37,-37 -33.18,16.28 -37.16,17.26 -60.32,52.2z"/>
  <path class="fil3" d="M4595.16 6749.3l-26.13 -47.11c-66.48,-0.56 -24.48,3.11 -41.83,16.39l40.18 -2.85 27.78 33.57z"/>
  <path class="fil2" d="M1323.26 7231.89c26.5,-18.12 4.23,7.12 30.28,-26.37 19.89,-25.56 0.8,-1.82 12.96,-26.9 -21.61,12.73 -8.94,-1.77 -23.76,16.26 -10.19,12.41 -12.08,20.82 -19.48,37.01z"/>
  <path class="fil2" d="M1932.79 6279.41c11.23,-10.59 10.75,-5.32 21.13,-21.02 9.45,-14.31 8.72,-16.27 16.25,-36.51 -18.9,14.1 -8.24,-2.6 -22.03,18.19 -10.27,15.49 -8.28,16.75 -15.35,39.34z"/>
  <path class="fil2" d="M7078.12 5665.94c-19.94,-46.28 -0.62,-19.07 -32.89,-38.72l9.51 26.47c2.98,25.31 -0.62,-1.2 23.38,12.25z"/>
  <path class="fil2" d="M6164.02 2720.08c36.53,-18.79 26.2,4.43 37.21,-42.24 -25.29,18.41 -18.53,13.1 -37.21,42.24z"/>
  <path class="fil2" d="M6513.91 2357.1c21.65,-12.19 10.34,-1.28 26.04,-15.64 11.75,-10.73 12.59,-13.9 23.37,-30.34 -32.67,18.45 -22.91,8.27 -49.41,45.98z"/>
  <path class="fil2" d="M7445.72 4775.38c-2.12,-36.8 -3.06,-29.87 -25.25,-46.11 5.22,25.23 -1.2,10.74 5.72,22.3 13.47,22.46 4.61,9.86 19.53,23.81z"/>
  <polygon class="fil4" points="5276.18,4016.39 5307.07,4015.4 5292.87,3987.77 "/>
  <path class="fil4" d="M3315.34 7599.14c36.95,-17.81 20.27,3.37 40.58,-43.32l-40.58 43.32z"/>
  <path class="fil2" d="M2413.67 7556.47c-13.64,-22.59 15.25,-6.71 -29.57,-26.26 16.04,35.52 -4.4,14.54 29.57,26.26z"/>
  <path class="fil2" d="M7026.4 2099.16l-28.6 -27.57c0.57,24.28 -6.81,20.41 12.91,20.41 0,25.81 -3.12,2.19 15.69,7.16z"/>
  <path class="fil2" d="M7220.91 5805.57l-36.6 -30.8c0.58,24.84 -6.88,20.7 13.76,20.7l22.84 10.1z"/>
  <path class="fil2" d="M1831.51 6493.5l19.91 -44.42c-22.84,0 -15.67,-4.98 -15.67,20.5l-4.24 23.92z"/>
  <path class="fil2" d="M6325.07 4090.93l-19.65 -43.31c5.11,61.81 3.28,28.29 19.65,43.31z"/>
  <path class="fil4" d="M4961.99 7098.64c56.21,-15.51 23.14,-2.67 37.29,-27.36l-37.29 27.36z"/>
  <path class="fil2" d="M6759.84 2099.39c59.79,-12.74 17.52,2.49 34.05,-25.75l-34.05 25.75z"/>
  <path class="fil3" d="M6279.86 6260.54l24.2 -34.63c-20.68,0 -16.85,-5.94 -16.85,12.16l-7.35 22.47z"/>
  <polygon class="fil2" points="7164.82,5765.25 7155.04,5741.28 7131.46,5735.41 "/>
  <path class="fil3" d="M7301.61 6999.99c23.04,-16.33 10.63,23.49 23.3,-37.31l-23.3 37.31z"/>
  <path class="fil2" d="M7298.29 2966.95c28.79,-12.1 17.61,2.83 29.58,-32.11l-29.58 32.11z"/>
  <path class="fil4" d="M6830.58 7275.22c28.71,-14.18 10.04,19.24 28.74,-30.58l-28.74 30.58z"/>
  <path class="fil4" d="M6760.19 7342.58c39.45,-13.81 19.04,-2.16 31.57,-28.91l-31.57 28.91z"/>
  <path class="fil3" d="M2279.87 3895.71l-34.96 -26.21c12.09,20.83 -9.12,12.08 34.96,26.21z"/>
  <path class="fil2" d="M6264.76 2621.04l30.44 -30.98c-25.78,11.5 -16.16,-3.63 -30.44,30.98z"/>
  <polygon class="fil5" points="6111.05,2776.16 6128.92,2771.53 6140.02,2745.72 "/>
  <path class="fil4" d="M5097.63 6973.57c20.84,-13.15 12.7,5.09 27.89,-35.86l-27.89 35.86z"/>
  <path class="fil2" d="M1551.32 6911.38l23.1 -37.89c-16.19,13.37 -11.97,-6.34 -23.1,37.89z"/>
  <path class="fil4" d="M4098.49 7189.28l28.38 -33.38c-23.66,13.3 -14.21,-1.52 -28.38,33.38z"/>
  <path class="fil4" d="M7477.86 7247.3c36.51,-10.93 22.79,-6.54 38.16,-23.91l-38.16 23.91z"/>
  <path class="fil3" d="M2539.29 5756.76c34.2,-8.78 21.99,-4.18 39.33,-21.68l-39.33 21.68z"/>
  <polygon class="fil5" points="7046.8,2129.04 7026.4,2099.16 "/>
  <polygon class="fil4" points="2827.69,3744.42 2804.33,3708.79 "/>
 </g>
</svg>
